package ipa150.pe 
import ipa150.pe.CommonBaseEvent
import ipa150.pe.ItemAttribute
import ipa150.pe.ActionEvent
declare CommonBaseEvent
@role( fact )
end
rule "rule3"
calendars "weekday"
when
$cbe : CommonBaseEvent(Identifier==542706693 && attributes["Maintenance"].value.equals("false"))
then
System.out.println( "Belt Tension is in need of Maintenance!!" );
ActionEvent actionEvent = new ActionEvent("ampel", "http://localhost:8081/verschleiss");
actionEvent.sendAction();
end
